<?xml version="1.0" encoding="UTF-8" standalone="no"?>
<svg
   version="1.1"
   viewBox="0 0 16 16"
   id="svg2"
   sodipodi:docname="arrow_down.svg"
   inkscape:version="1.4 (e7c3feb100, 2024-10-09)"
   xmlns:inkscape="http://www.inkscape.org/namespaces/inkscape"
   xmlns:sodipodi="http://sodipodi.sourceforge.net/DTD/sodipodi-0.dtd"
   xmlns="http://www.w3.org/2000/svg"
   xmlns:svg="http://www.w3.org/2000/svg">
  <defs
     id="defs2" />
  <sodipodi:namedview
     id="namedview2"
     pagecolor="#ffffff"
     bordercolor="#111111"
     borderopacity="1"
     inkscape:showpageshadow="0"
     inkscape:pageopacity="0"
     inkscape:pagecheckerboard="1"
     inkscape:deskcolor="#d1d1d1"
     inkscape:zoom="51.875"
     inkscape:cx="8.0096386"
     inkscape:cy="8"
     inkscape:current-layer="svg2" />
  <path
     d="m2.5 4c-.82235 0-1.5.67765-1.5 1.5v6.3086c.00406-.09583.020598-.19232.048828-.28516l.95117-3.1328v-2.8906c0-.28565.21435-.5.5-.5h3.793l1 1h5.207c.28565 0 .5.21435.5.5v.99902h.96484c.01181 0 .02339.00171.03516.00195v-1.001c0-.82235-.67765-1.5-1.5-1.5h-4.793l-1-1zm-1.5 7.8086c-1-11.809-1-11.809 0 0z"
     id="path1"
     style="fill:#ffffff" />
  <path
     transform="matrix(1 0 -.29094 .95674 0 0)"
     d="m6.416 8.8791h10.17c.554 0 1 .38626 1 .86605v3.4967c0 .47979-.446.86605-1 .86605h-10.17c-.554 0-1-.38626-1-.86605v-3.4967c0-.47979.446-.86605 1-.86605z"
     stroke="#000"
     stroke-width="1.0224"
     id="path2"
     style="fill:#ffffff;stroke:#ffffff" />
</svg>
